{
  "data": [
    {
      "IssuerId": 38,
      "IssuerName": "24 Hour Fitness",
      "ClientCustomId": null
    },
    {
      "IssuerId": 73,
      "IssuerName": "Star US Bidco dba Sundyne US Purchaser (Accudyne Industries)",
      "ClientCustomId": null
    },
    {
      "IssuerId": 93,
      "IssuerName": "5-hour Energy - Innovation Ventures, LLC",
      "ClientCustomId": null
    },
    {
      "IssuerId": 100,
      "IssuerName": "21st Century Oncology",
      "ClientCustomId": null
    },
    {
      "IssuerId": 124,
      "IssuerName": "Access Information Services (Access CIG)",
      "ClientCustomId": null
    },
    {
      "IssuerId": 149,
      "IssuerName": "ProQuest LLC",
      "ClientCustomId": null
    },
    {
      "IssuerId": 166,
      "IssuerName": "Securus Technologies Holdings Inc (Aventiv Technologies)",
      "ClientCustomId": null
    },
    {
      "IssuerId": 205,
      "IssuerName": "Bass Pro Group, LLC",
      "ClientCustomId": null
    },
    {
      "IssuerId": 235,
      "IssuerName": "Liberty Cablevision of Puerto Rico LLC/Liberty Global (Choice Cable)",
      "ClientCustomId": null
    },
    {
      "IssuerId": 256,
      "IssuerName": "MaxLinear, Inc.",
      "ClientCustomId": null
    },
    {
      "IssuerId": 298,
      "IssuerName": "American Airlines Inc",
      "ClientCustomId": null
    },
    {
      "IssuerId": 319,
      "IssuerName": "Navios Maritime Midstream",
      "ClientCustomId": null
    },
    {
      "IssuerId": 370,
      "IssuerName": "Ascena Retail Group, Inc.",
      "ClientCustomId": null
    },
    {
      "IssuerId": 371,
      "IssuerName": "Peer Holding B.V. (Action Holding B.V.)",
      "ClientCustomId": null
    },
    {
      "IssuerId": 396,
      "IssuerName": "Delachaux S.A.",
      "ClientCustomId": null
    },
    {
      "IssuerId": 413,
      "IssuerName": "Infogroup",
      "ClientCustomId": null
    },
    {
      "IssuerId": 430,
      "IssuerName": "Tower Automotive Holdings USA, LLC",
      "ClientCustomId": null
    },
    {
      "IssuerId": 487,
      "IssuerName": "Private Side Demo Issuer",
      "ClientCustomId": null
    },
    {
      "IssuerId": 577,
      "IssuerName": "Trinseo Materials Operating",
      "ClientCustomId": null
    },
    {
      "IssuerId": 591,
      "IssuerName": "Numericable, SFR Group (Altice France)",
      "ClientCustomId": null
    },
    {
      "IssuerId": 676,
      "IssuerName": "Transcendia, Inc",
      "ClientCustomId": null
    },
    {
      "IssuerId": 705,
      "IssuerName": "4LHoldings Corporation (Clover)",
      "ClientCustomId": null
    },
    {
      "IssuerId": 709,
      "IssuerName": "Berry Global Group Inc., Berry Plastics Holding Corporation (Rexam Healthcare)",
      "ClientCustomId": null
    },
    {
      "IssuerId": 725,
      "IssuerName": "GST AutoLeather, Inc.",
      "ClientCustomId": null
    },
    {
      "IssuerId": 731,
      "IssuerName": "Presidio, Inc.",
      "ClientCustomId": null
    },
    {
      "IssuerId": 760,
      "IssuerName": "Viskase Companies, Inc.",
      "ClientCustomId": null
    },
    {
      "IssuerId": 851,
      "IssuerName": "Alliance Healthcare",
      "ClientCustomId": null
    },
    {
      "IssuerId": 885,
      "IssuerName": "Caelus Energy",
      "ClientCustomId": null
    },
    {
      "IssuerId": 899,
      "IssuerName": "Americold",
      "ClientCustomId": "test"
    },
    {
      "IssuerId": 901,
      "IssuerName": "Alion Science and Technology Corporation",
      "ClientCustomId": null
    },
    {
      "IssuerId": 917,
      "IssuerName": "nThrive, Inc  (fka Precyse Acquisition Corp), MedAssets",
      "ClientCustomId": null
    },
    {
      "IssuerId": 949,
      "IssuerName": "AP Exhaust Technologies",
      "ClientCustomId": null
    },
    {
      "IssuerId": 959,
      "IssuerName": "CNT Holdings III Corp (fka 1-800 Contacts)",
      "ClientCustomId": null
    },
    {
      "IssuerId": 966,
      "IssuerName": "FHC Health Systems, Inc. (Beacon Health)",
      "ClientCustomId": null
    },
    {
      "IssuerId": 981,
      "IssuerName": "Capital Automotive L.P.",
      "ClientCustomId": null
    },
    {
      "IssuerId": 985,
      "IssuerName": "Alinta",
      "ClientCustomId": null
    },
    {
      "IssuerId": 991,
      "IssuerName": "Anchor Glass Container Corp.",
      "ClientCustomId": null
    },
    {
      "IssuerId": 1005,
      "IssuerName": "Change Healthcare Internediate (Emdeon/PF2)",
      "ClientCustomId": null
    },
    {
      "IssuerId": 1041,
      "IssuerName": "TMS International Corp (Tube City IMS)",
      "ClientCustomId": null
    },
    {
      "IssuerId": 1063,
      "IssuerName": "Sungard Availability Services Capital (Ramundsen Holdings LLC)",
      "ClientCustomId": null
    },
    {
      "IssuerId": 1074,
      "IssuerName": "Select Medical Corporation",
      "ClientCustomId": null
    },
    {
      "IssuerId": 1106,
      "IssuerName": "1011778 B.C. (New Red Finance, Inc, Burger King/Tim Horton's, Restaurant Brands International)",
      "ClientCustomId": null
    },
    {
      "IssuerId": 1132,
      "IssuerName": "A Wireless Inc.",
      "ClientCustomId": null
    },
    {
      "IssuerId": 1143,
      "IssuerName": "Virgin Media Secured Finance PLC, Virgin Media Finance PLC (Virgin Media)",
      "ClientCustomId": null
    },
    {
      "IssuerId": 1200,
      "IssuerName": "Sage Automotive Holdings, Inc.",
      "ClientCustomId": null
    },
    {
      "IssuerId": 1246,
      "IssuerName": "Quality Care Properties, Inc.",
      "ClientCustomId": null
    },
    {
      "IssuerId": 1256,
      "IssuerName": "Premier Trailer",
      "ClientCustomId": null
    },
    {
      "IssuerId": 1260,
      "IssuerName": "Royal Holdings, Inc.",
      "ClientCustomId": null
    },
    {
      "IssuerId": 1389,
      "IssuerName": "Nutraceutical International Corporation",
      "ClientCustomId": null
    },
    {
      "IssuerId": 1407,
      "IssuerName": "NES Global Talent Limited, NES Group Ltd.",
      "ClientCustomId": null
    },
    {
      "IssuerId": 1531,
      "IssuerName": "Carestream Health (Onex)",
      "ClientCustomId": null
    },
    {
      "IssuerId": 1533,
      "IssuerName": "ABG Intermediate Holdings 2 LLC (Authentic Brands Group, LLC)",
      "ClientCustomId": null
    },
    {
      "IssuerId": 1547,
      "IssuerName": "Apex Tool, LLC",
      "ClientCustomId": null
    },
    {
      "IssuerId": 1564,
      "IssuerName": "Autoparts Holdings Limited",
      "ClientCustomId": null
    },
    {
      "IssuerId": 1589,
      "IssuerName": "Ineos Styrolution Group GMBH",
      "ClientCustomId": null
    },
    {
      "IssuerId": 1597,
      "IssuerName": "Brooks Automation, Inc.",
      "ClientCustomId": null
    },
    {
      "IssuerId": 1632,
      "IssuerName": "Tortoise Investments, LLC",
      "ClientCustomId": null
    },
    {
      "IssuerId": 1681,
      "IssuerName": "Bright Horizons Family Solutions LLC",
      "ClientCustomId": null
    },
    {
      "IssuerId": 1694,
      "IssuerName": "Toys 'R' Us-Delaware, Inc.",
      "ClientCustomId": null
    },
    {
      "IssuerId": 1749,
      "IssuerName": "A. Schulman, Inc.",
      "ClientCustomId": null
    },
    {
      "IssuerId": 1792,
      "IssuerName": "International Car Wash Group (Boing US Holdco Inc.)",
      "ClientCustomId": null
    },
    {
      "IssuerId": 1798,
      "IssuerName": "1A Smart Start LLC",
      "ClientCustomId": null
    },
    {
      "IssuerId": 1832,
      "IssuerName": "CSP Technologies",
      "ClientCustomId": null
    },
    {
      "IssuerId": 1885,
      "IssuerName": "ABC Financial Services, Inc. (Project Accelerate)",
      "ClientCustomId": null
    },
    {
      "IssuerId": 1903,
      "IssuerName": "ADB Safegate (CEP IV Investment 16 S.a r.l.)",
      "ClientCustomId": null
    },
    {
      "IssuerId": 2131,
      "IssuerName": "ASP Prince Intermediate Holdings",
      "ClientCustomId": null
    },
    {
      "IssuerId": 2194,
      "IssuerName": "Adtalem Global Education Inc.",
      "ClientCustomId": null
    },
    {
      "IssuerId": 2372,
      "IssuerName": "Abercrombie & Fitch Co",
      "ClientCustomId": null
    },
    {
      "IssuerId": 2546,
      "IssuerName": "A Place for Mom, Inc.",
      "ClientCustomId": null
    },
    {
      "IssuerId": 2559,
      "IssuerName": "800 Apollo, LP",
      "ClientCustomId": null
    },
    {
      "IssuerId": 2822,
      "IssuerName": "24-7 Intouch Inc",
      "ClientCustomId": null
    },
    {
      "IssuerId": 2833,
      "IssuerName": "837 North Spring Owner, LLC",
      "ClientCustomId": null
    },
    {
      "IssuerId": 2867,
      "IssuerName": "DNU10",
      "ClientCustomId": null
    },
    {
      "IssuerId": 2871,
      "IssuerName": "Navios Maritime Partners L.P",
      "ClientCustomId": null
    },
    {
      "IssuerId": 3153,
      "IssuerName": "4over, LLC",
      "ClientCustomId": null
    },
    {
      "IssuerId": 3339,
      "IssuerName": "MBI Holdings, Inc.",
      "ClientCustomId": null
    },
    {
      "IssuerId": 3371,
      "IssuerName": "Concentra Inc",
      "ClientCustomId": null
    },
    {
      "IssuerId": 3373,
      "IssuerName": "3i Group plc",
      "ClientCustomId": null
    },
    {
      "IssuerId": 3447,
      "IssuerName": "11.2 Capital",
      "ClientCustomId": null
    },
    {
      "IssuerId": 3522,
      "IssuerName": "666 Fifth Avenue",
      "ClientCustomId": null
    },
    {
      "IssuerId": 3583,
      "IssuerName": "Abercrombie & Kent",
      "ClientCustomId": null
    },
    {
      "IssuerId": 3730,
      "IssuerName": "JK test issuer_1",
      "ClientCustomId": null
    },
    {
      "IssuerId": 3735,
      "IssuerName": "Steffi Ltd.",
      "ClientCustomId": null
    },
    {
      "IssuerId": 3744,
      "IssuerName": "LAHN Inc",
      "ClientCustomId": null
    },
    {
      "IssuerId": 3760,
      "IssuerName": "Dellovo Inc ",
      "ClientCustomId": null
    },
    {
      "IssuerId": 3765,
      "IssuerName": "Andrew Lau Inc",
      "ClientCustomId": null
    },
    {
      "IssuerId": 3768,
      "IssuerName": "Steffi Inc.",
      "ClientCustomId": null
    },
    {
      "IssuerId": 3769,
      "IssuerName": "Cho Jeun Corp",
      "ClientCustomId": null
    },
    {
      "IssuerId": 3881,
      "IssuerName": "Anchor Packaging",
      "ClientCustomId": null
    },
    {
      "IssuerId": 4045,
      "IssuerName": "18 Fremont Street",
      "ClientCustomId": null
    },
    {
      "IssuerId": 4202,
      "IssuerName": "Test Issuer 5",
      "ClientCustomId": null
    },
    {
      "IssuerId": 4477,
      "IssuerName": "Kronos Worldwide (Kronos International Inc.)",
      "ClientCustomId": null
    },
    {
      "IssuerId": 4978,
      "IssuerName": "KIK Custom Products (Kronos Acquisition Holdings)",
      "ClientCustomId": null
    },
    {
      "IssuerId": 4979,
      "IssuerName": "Kronos Inc.",
      "ClientCustomId": null
    },
    {
      "IssuerId": 4980,
      "IssuerName": "Demo Issuer",
      "ClientCustomId": null
    },
    {
      "IssuerId": 4984,
      "IssuerName": "JK test issuer1",
      "ClientCustomId": null
    },
    {
      "IssuerId": 5903,
      "IssuerName": "TEST ISSUER 3 SUB JULY 6 2020",
      "ClientCustomId": null
    }
  ]
}